# createNetworkGenesTemplate correctly returns the template file

    Code
      createNetworkGenesTemplate(network, store = F, modify = F)
    Output
      # A tibble: 25 x 2
         node     symbol  
         <chr>    <chr>   
       1 EGFR     EGFR    
       2 FGFR3    FGFR3   
       3 RAS      RAS     
       4 E2F1_1   E2F1_1  
       5 E2F1_2   E2F1_2  
       6 E2F3_1   E2F3_1  
       7 E2F3_2   E2F3_2  
       8 CyclinD1 CyclinD1
       9 CyclinE1 CyclinE1
      10 CyclinA  CyclinA 
      # ... with 15 more rows
…
