Using Ingres to obtain single-cell probabilistic Boolean networks from single-cell RNA-seq data • ingres
…
We can use the function createNetworkGenesTemplate to generate a network_genes file with the node names prepopulated. If using RStudio interactively, the function opens this file for us to modify as needed.

# store and modify = FALSE just for demonstration.
createNetworkGenesTemplate(network, store = FALSE, modify = FALSE)
#> # A tibble: 25 × 2
#>    node     symbol  
#>    <chr>    <chr>   
#>  1 EGFR     EGFR    
#>  2 FGFR3    FGFR3   
#>  3 RAS      RAS     
#>  4 E2F1_1   E2F1_1  
#>  5 E2F1_2   E2F1_2  
#>  6 E2F3_1   E2F3_1  
#>  7 E2F3_2   E2F3_2  
#>  8 CyclinD1 CyclinD1
#>  9 CyclinE1 CyclinE1
#> 10 CyclinA  CyclinA 
#> # … with 15 more rows
…
